{
    "name": "00.MM.Services",
    "rootNamespace": "MM.Services",
    "references": [],
    "includePlatforms": [],
    "excludePlatforms": [],
    "allowUnsafeCode": false,
    "overrideReferences": false,
    "precompiledReferences": [],
    "autoReferenced": false,
    "defineConstraints": [],
    "versionDefines": [],
    "noEngineReferences": true
}